<?xml version="1.0" encoding="UTF-8" standalone="no"?>
<svg width="20px" height="29px" viewBox="0 0 20 29" version="1.1" xmlns="http://www.w3.org/2000/svg" xmlns:xlink="http://www.w3.org/1999/xlink" xmlns:sketch="http://www.bohemiancoding.com/sketch/ns">
    <!-- Generator: Sketch 3.0.4 (8054) - http://www.bohemiancoding.com/sketch -->
    <title>location</title>
    <desc>Created with Sketch.</desc>
    <defs></defs>
    <g id="Page-1" stroke="none" stroke-width="1" fill="none" fill-rule="evenodd" sketch:type="MSPage">
        <g id="location" sketch:type="MSLayerGroup" fill="#15273B">
            <g id="Page-1" sketch:type="MSShapeGroup">
                <g id="Desktop-24">
                    <path d="M10,29 C10,29 20,16.2058528 20,10.44 C20,4.6741472 15.522847,0 10,0 C4.477153,0 0,4.6741472 0,10.44 C0,16.2058528 10,29 10,29 L10,29 Z M10,15.1904762 C12.945519,15.1904762 15.333333,12.7173824 15.333333,9.6666667 C15.333333,6.6159509 12.945519,4.1428571 10,4.1428571 C7.054481,4.1428571 4.666667,6.6159509 4.666667,9.6666667 C4.666667,12.7173824 7.054481,15.1904762 10,15.1904762 L10,15.1904762 Z" id="Oval-9"></path>
                </g>
            </g>
        </g>
    </g>
</svg>